{
    "users": [
        {
            "login": "fraxken@ethernuum.com",
            "nickname": "Fraxken",
            "password": "test",
            "active": true,
            "level": 0,
            "exp": 0
        }
    ]
}